<?xml version="1.0" encoding="UTF-8" standalone="no"?>
<!-- Created with Inkscape (http://www.inkscape.org/) -->

<svg
   xmlns:dc="http://purl.org/dc/elements/1.1/"
   xmlns:cc="http://creativecommons.org/ns#"
   xmlns:rdf="http://www.w3.org/1999/02/22-rdf-syntax-ns#"
   xmlns:svg="http://www.w3.org/2000/svg"
   xmlns="http://www.w3.org/2000/svg"
   xmlns:sodipodi="http://sodipodi.sourceforge.net/DTD/sodipodi-0.dtd"
   xmlns:inkscape="http://www.inkscape.org/namespaces/inkscape"
   width="297mm"
   height="210mm"
   viewBox="0 0 297 210"
   version="1.1"
   id="svg8"
   inkscape:version="0.92.0 r15299"
   sodipodi:docname="cluster_setup.svg">
  <defs
     id="defs2" />
  <sodipodi:namedview
     id="base"
     pagecolor="#ffffff"
     bordercolor="#666666"
     borderopacity="1.0"
     inkscape:pageopacity="0.0"
     inkscape:pageshadow="2"
     inkscape:zoom="0.98994949"
     inkscape:cx="542.07187"
     inkscape:cy="490.14768"
     inkscape:document-units="mm"
     inkscape:current-layer="layer1"
     showgrid="false"
     inkscape:window-width="1278"
     inkscape:window-height="762"
     inkscape:window-x="1366"
     inkscape:window-y="18"
     inkscape:window-maximized="0">
    <inkscape:grid
       type="xygrid"
       id="grid10" />
  </sodipodi:namedview>
  <metadata
     id="metadata5">
    <rdf:RDF>
      <cc:Work
         rdf:about="">
        <dc:format>image/svg+xml</dc:format>
        <dc:type
           rdf:resource="http://purl.org/dc/dcmitype/StillImage" />
        <dc:title />
      </cc:Work>
    </rdf:RDF>
  </metadata>
  <g
     inkscape:label="Layer 1"
     inkscape:groupmode="layer"
     id="layer1"
     transform="translate(0,-87)">
    <rect
       style="opacity:1;fill:#000000;fill-opacity:0;stroke:#000000;stroke-width:0.39679682;stroke-miterlimit:4;stroke-dasharray:none;stroke-opacity:1"
       id="rect4506-6"
       width="34.395828"
       height="34.395828"
       x="82.020844"
       y="90.625" />
    <text
       xml:space="preserve"
       style="font-style:normal;font-weight:normal;font-size:10.58333302px;line-height:6.61458302px;font-family:sans-serif;letter-spacing:0px;word-spacing:0px;fill:#000000;fill-opacity:1;stroke:none;stroke-width:0.26458332"
       x="98.963028"
       y="98.373528"
       id="text4510-7"><tspan
         sodipodi:role="line"
         id="tspan4508-5"
         x="98.963028"
         y="98.373528"
         style="font-size:5.64444447px;text-align:center;text-anchor:middle;stroke-width:0.26458332">OpenShift</tspan><tspan
         sodipodi:role="line"
         x="98.963028"
         y="106.27106"
         style="font-size:5.64444447px;text-align:center;text-anchor:middle;stroke-width:0.26458332"
         id="tspan4512-3">Master</tspan></text>
    <rect
       style="opacity:1;fill:#000000;fill-opacity:0;stroke:#000000;stroke-width:0.50431991;stroke-miterlimit:4;stroke-dasharray:none;stroke-opacity:1"
       id="rect4506-7"
       width="34.395828"
       height="55.562477"
       x="21.166672"
       y="154.12515" />
    <text
       xml:space="preserve"
       style="font-style:normal;font-weight:normal;font-size:10.58333302px;line-height:6.61458302px;font-family:sans-serif;letter-spacing:0px;word-spacing:0px;fill:#000000;fill-opacity:1;stroke:none;stroke-width:0.26458332"
       x="38.108856"
       y="164.51949"
       id="text4510-0"><tspan
         sodipodi:role="line"
         id="tspan4508-9"
         x="38.108856"
         y="164.51949"
         style="font-size:5.64444447px;text-align:center;text-anchor:middle;stroke-width:0.26458332">OpenShift</tspan><tspan
         sodipodi:role="line"
         x="38.108856"
         y="172.41702"
         style="font-size:5.64444447px;text-align:center;text-anchor:middle;stroke-width:0.26458332"
         id="tspan4512-36">Node</tspan></text>
    <text
       xml:space="preserve"
       style="font-style:normal;font-weight:normal;font-size:10.58333302px;line-height:6.61458302px;font-family:sans-serif;letter-spacing:0px;word-spacing:0px;fill:#000000;fill-opacity:1;stroke:none;stroke-width:0.26458332"
       x="38.386116"
       y="190.10852"
       id="text4607"><tspan
         sodipodi:role="line"
         id="tspan4605"
         x="38.386116"
         y="190.10852"
         style="font-size:4.58611107px;text-align:center;text-anchor:middle;stroke-width:0.26458332">DC1</tspan><tspan
         sodipodi:role="line"
         x="38.386116"
         y="198.28098"
         style="font-size:4.58611107px;text-align:center;text-anchor:middle;stroke-width:0.26458332"
         id="tspan4983">HAProxy</tspan><tspan
         sodipodi:role="line"
         x="38.386116"
         y="206.45343"
         style="font-size:4.58611107px;text-align:center;text-anchor:middle;stroke-width:0.26458332"
         id="tspan194">Infra</tspan></text>
    <rect
       style="opacity:1;fill:#000000;fill-opacity:0;stroke:#000000;stroke-width:0.50431991;stroke-miterlimit:4;stroke-dasharray:none;stroke-opacity:1"
       id="rect4506-7-6"
       width="34.395828"
       height="55.562477"
       x="58.20834"
       y="154.12515" />
    <text
       xml:space="preserve"
       style="font-style:normal;font-weight:normal;font-size:10.58333302px;line-height:6.61458302px;font-family:sans-serif;letter-spacing:0px;word-spacing:0px;fill:#000000;fill-opacity:1;stroke:none;stroke-width:0.26458332"
       x="75.15052"
       y="164.51949"
       id="text4510-0-2"><tspan
         sodipodi:role="line"
         id="tspan4508-9-6"
         x="75.15052"
         y="164.51949"
         style="font-size:5.64444447px;text-align:center;text-anchor:middle;stroke-width:0.26458332">OpenShift</tspan><tspan
         sodipodi:role="line"
         x="75.15052"
         y="172.41702"
         style="font-size:5.64444447px;text-align:center;text-anchor:middle;stroke-width:0.26458332"
         id="tspan4512-36-1">Node</tspan></text>
    <text
       xml:space="preserve"
       style="font-style:normal;font-weight:normal;font-size:10.58333302px;line-height:6.61458302px;font-family:sans-serif;letter-spacing:0px;word-spacing:0px;fill:#000000;fill-opacity:1;stroke:none;stroke-width:0.26458332"
       x="74.671837"
       y="190.10852"
       id="text4607-8"><tspan
         sodipodi:role="line"
         id="tspan4605-7"
         x="74.671837"
         y="190.10852"
         style="font-size:4.58611107px;text-align:center;text-anchor:middle;stroke-width:0.26458332">DC2</tspan><tspan
         id="tspan4985"
         sodipodi:role="line"
         x="74.671837"
         y="198.28098"
         style="font-size:4.58611107px;text-align:center;text-anchor:middle;stroke-width:0.26458332">HAProxy</tspan><tspan
         sodipodi:role="line"
         x="74.671837"
         y="206.45343"
         style="font-size:4.58611107px;text-align:center;text-anchor:middle;stroke-width:0.26458332"
         id="tspan196">Infra</tspan></text>
    <rect
       style="opacity:1;fill:#000000;fill-opacity:0;stroke:#000000;stroke-width:0.50431991;stroke-miterlimit:4;stroke-dasharray:none;stroke-opacity:1"
       id="rect4506-7-6-2"
       width="34.395828"
       height="55.562477"
       x="127.00002"
       y="154.12515" />
    <text
       xml:space="preserve"
       style="font-style:normal;font-weight:normal;font-size:10.58333302px;line-height:6.61458302px;font-family:sans-serif;letter-spacing:0px;word-spacing:0px;fill:#000000;fill-opacity:1;stroke:none;stroke-width:0.26458332"
       x="143.94211"
       y="164.51949"
       id="text4510-0-2-0"><tspan
         sodipodi:role="line"
         id="tspan4508-9-6-2"
         x="143.94211"
         y="164.51949"
         style="font-size:5.64444447px;text-align:center;text-anchor:middle;stroke-width:0.26458332">OpenShift</tspan><tspan
         sodipodi:role="line"
         x="143.94211"
         y="172.41702"
         style="font-size:5.64444447px;text-align:center;text-anchor:middle;stroke-width:0.26458332"
         id="tspan4512-36-1-3">Node</tspan></text>
    <text
       xml:space="preserve"
       style="font-style:normal;font-weight:normal;font-size:10.58333302px;line-height:6.61458302px;font-family:sans-serif;letter-spacing:0px;word-spacing:0px;fill:#000000;fill-opacity:1;stroke:none;stroke-width:0.26458332"
       x="144.08717"
       y="185.49718"
       id="text4691"><tspan
         sodipodi:role="line"
         id="tspan4689"
         x="144.08717"
         y="185.49718"
         style="font-size:4.58611107px;text-align:center;text-anchor:middle;stroke-width:0.26458332">DC1</tspan><tspan
         id="tspan4865"
         sodipodi:role="line"
         x="144.08717"
         y="193.66963"
         style="font-size:4.58611107px;text-align:center;text-anchor:middle;stroke-width:0.26458332">SecZone 1</tspan><tspan
         id="tspan4863"
         sodipodi:role="line"
         x="144.08717"
         y="201.84209"
         style="font-size:4.58611107px;text-align:center;text-anchor:middle;stroke-width:0.26458332">Worker</tspan></text>
    <text
       xml:space="preserve"
       style="font-style:normal;font-weight:normal;font-size:10.58333302px;line-height:6.61458349px;font-family:sans-serif;letter-spacing:0px;word-spacing:0px;fill:#000000;fill-opacity:1;stroke:none;stroke-width:0.26458332"
       x="180.75087"
       y="185.11922"
       id="text4691-1"><tspan
         sodipodi:role="line"
         id="tspan4689-0"
         x="180.75087"
         y="185.11922"
         style="font-size:4.58611107px;text-align:center;text-anchor:middle;stroke-width:0.26458332">DC1</tspan><tspan
         id="tspan4865-6"
         sodipodi:role="line"
         x="180.75087"
         y="193.29167"
         style="font-size:4.58611107px;text-align:center;text-anchor:middle;stroke-width:0.26458332">SecZone 2</tspan><tspan
         id="tspan4863-3"
         sodipodi:role="line"
         x="180.75087"
         y="201.46413"
         style="font-size:4.58611107px;text-align:center;text-anchor:middle;stroke-width:0.26458332">Worker</tspan></text>
    <text
       xml:space="preserve"
       style="font-style:normal;font-weight:normal;font-size:10.58333302px;line-height:6.61458349px;font-family:sans-serif;letter-spacing:0px;word-spacing:0px;fill:#000000;fill-opacity:1;stroke:none;stroke-width:0.26458332"
       x="217.41457"
       y="185.11922"
       id="text4691-2"><tspan
         sodipodi:role="line"
         id="tspan4689-06"
         x="217.41457"
         y="185.11922"
         style="font-size:4.58611107px;text-align:center;text-anchor:middle;stroke-width:0.26458332">DC2</tspan><tspan
         id="tspan4865-1"
         sodipodi:role="line"
         x="217.41457"
         y="193.29167"
         style="font-size:4.58611107px;text-align:center;text-anchor:middle;stroke-width:0.26458332">SecZone 1</tspan><tspan
         id="tspan4863-5"
         sodipodi:role="line"
         x="217.41457"
         y="201.46413"
         style="font-size:4.58611107px;text-align:center;text-anchor:middle;stroke-width:0.26458332">Worker</tspan></text>
    <text
       xml:space="preserve"
       style="font-style:normal;font-weight:normal;font-size:10.58333302px;line-height:6.61458349px;font-family:sans-serif;letter-spacing:0px;word-spacing:0px;fill:#000000;fill-opacity:1;stroke:none;stroke-width:0.26458332"
       x="254.8342"
       y="185.11922"
       id="text4691-5"><tspan
         sodipodi:role="line"
         id="tspan4689-47"
         x="254.8342"
         y="185.11922"
         style="font-size:4.58611107px;text-align:center;text-anchor:middle;stroke-width:0.26458332">DC2</tspan><tspan
         id="tspan4865-65"
         sodipodi:role="line"
         x="254.8342"
         y="193.29167"
         style="font-size:4.58611107px;text-align:center;text-anchor:middle;stroke-width:0.26458332">SecZone 2</tspan><tspan
         id="tspan4863-6"
         sodipodi:role="line"
         x="254.8342"
         y="201.46413"
         style="font-size:4.58611107px;text-align:center;text-anchor:middle;stroke-width:0.26458332">Worker</tspan></text>
    <rect
       style="opacity:1;fill:#000000;fill-opacity:0;stroke:#000000;stroke-width:0.50431991;stroke-miterlimit:4;stroke-dasharray:none;stroke-opacity:1"
       id="rect4506-7-6-2-2"
       width="34.395828"
       height="55.562477"
       x="164.0416"
       y="154.12515" />
    <text
       xml:space="preserve"
       style="font-style:normal;font-weight:normal;font-size:10.58333302px;line-height:6.61458302px;font-family:sans-serif;letter-spacing:0px;word-spacing:0px;fill:#000000;fill-opacity:1;stroke:none;stroke-width:0.26458332"
       x="180.98376"
       y="164.51949"
       id="text4510-0-2-0-2"><tspan
         sodipodi:role="line"
         id="tspan4508-9-6-2-8"
         x="180.98376"
         y="164.51949"
         style="font-size:5.64444447px;text-align:center;text-anchor:middle;stroke-width:0.26458332">OpenShift</tspan><tspan
         sodipodi:role="line"
         x="180.98376"
         y="172.41702"
         style="font-size:5.64444447px;text-align:center;text-anchor:middle;stroke-width:0.26458332"
         id="tspan4512-36-1-3-9">Node</tspan></text>
    <rect
       style="opacity:1;fill:#000000;fill-opacity:0;stroke:#000000;stroke-width:0.50431991;stroke-miterlimit:4;stroke-dasharray:none;stroke-opacity:1"
       id="rect4506-7-6-2-1"
       width="34.395828"
       height="55.562477"
       x="201.08327"
       y="154.12515" />
    <text
       xml:space="preserve"
       style="font-style:normal;font-weight:normal;font-size:10.58333302px;line-height:6.61458302px;font-family:sans-serif;letter-spacing:0px;word-spacing:0px;fill:#000000;fill-opacity:1;stroke:none;stroke-width:0.26458332"
       x="218.02544"
       y="164.51949"
       id="text4510-0-2-0-29"><tspan
         sodipodi:role="line"
         id="tspan4508-9-6-2-3"
         x="218.02544"
         y="164.51949"
         style="font-size:5.64444447px;text-align:center;text-anchor:middle;stroke-width:0.26458332">OpenShift</tspan><tspan
         sodipodi:role="line"
         x="218.02544"
         y="172.41702"
         style="font-size:5.64444447px;text-align:center;text-anchor:middle;stroke-width:0.26458332"
         id="tspan4512-36-1-3-1">Node</tspan></text>
    <rect
       style="opacity:1;fill:#000000;fill-opacity:0;stroke:#000000;stroke-width:0.50431991;stroke-miterlimit:4;stroke-dasharray:none;stroke-opacity:1"
       id="rect4506-7-6-2-8"
       width="34.395828"
       height="55.562477"
       x="238.12492"
       y="154.12515" />
    <text
       xml:space="preserve"
       style="font-style:normal;font-weight:normal;font-size:10.58333302px;line-height:6.61458302px;font-family:sans-serif;letter-spacing:0px;word-spacing:0px;fill:#000000;fill-opacity:1;stroke:none;stroke-width:0.26458332"
       x="255.06709"
       y="164.51949"
       id="text4510-0-2-0-4"><tspan
         sodipodi:role="line"
         id="tspan4508-9-6-2-5"
         x="255.06709"
         y="164.51949"
         style="font-size:5.64444447px;text-align:center;text-anchor:middle;stroke-width:0.26458332">OpenShift</tspan><tspan
         sodipodi:role="line"
         x="255.06709"
         y="172.41702"
         style="font-size:5.64444447px;text-align:center;text-anchor:middle;stroke-width:0.26458332"
         id="tspan4512-36-1-3-0">Node</tspan></text>
    <text
       xml:space="preserve"
       style="font-style:normal;font-weight:normal;font-size:10.58333302px;line-height:6.61458349px;font-family:sans-serif;letter-spacing:0px;word-spacing:0px;fill:#000000;fill-opacity:1;stroke:none;stroke-width:0.26458332"
       x="91.848221"
       y="115.1179"
       id="text5008-9"><tspan
         sodipodi:role="line"
         id="tspan5006-3"
         x="91.848221"
         y="115.1179"
         style="font-size:4.58611107px;stroke-width:0.26458332">DC 1</tspan><tspan
         sodipodi:role="line"
         x="91.848221"
         y="123.29036"
         style="font-size:4.58611107px;stroke-width:0.26458332"
         id="tspan188">etcd</tspan></text>
    <rect
       style="opacity:1;fill:#000000;fill-opacity:0;stroke:#000000;stroke-width:0.39679685;stroke-miterlimit:4;stroke-dasharray:none;stroke-opacity:1"
       id="rect4506-6-7"
       width="34.395828"
       height="34.395828"
       x="124.35418"
       y="90.625008" />
    <text
       xml:space="preserve"
       style="font-style:normal;font-weight:normal;font-size:10.58333302px;line-height:6.61458349px;font-family:sans-serif;letter-spacing:0px;word-spacing:0px;fill:#000000;fill-opacity:1;stroke:none;stroke-width:0.26458332"
       x="141.29636"
       y="98.37355"
       id="text4510-7-5"><tspan
         sodipodi:role="line"
         id="tspan4508-5-3"
         x="141.29636"
         y="98.37355"
         style="font-size:5.64444447px;text-align:center;text-anchor:middle;stroke-width:0.26458332">OpenShift</tspan><tspan
         sodipodi:role="line"
         x="141.29636"
         y="106.27109"
         style="font-size:5.64444447px;text-align:center;text-anchor:middle;stroke-width:0.26458332"
         id="tspan4512-3-5">Master</tspan></text>
    <text
       xml:space="preserve"
       style="font-style:normal;font-weight:normal;font-size:10.58333302px;line-height:6.61458349px;font-family:sans-serif;letter-spacing:0px;word-spacing:0px;fill:#000000;fill-opacity:1;stroke:none;stroke-width:0.26458332"
       x="134.18155"
       y="115.11792"
       id="text5008-9-6"><tspan
         sodipodi:role="line"
         id="tspan5006-3-2"
         x="134.18155"
         y="115.11792"
         style="font-size:4.58611107px;stroke-width:0.26458332">DC 2</tspan><tspan
         sodipodi:role="line"
         x="134.18155"
         y="123.29037"
         style="font-size:4.58611107px;stroke-width:0.26458332"
         id="tspan190">etcd</tspan></text>
    <rect
       style="opacity:1;fill:#000000;fill-opacity:0;stroke:#000000;stroke-width:0.39679685;stroke-miterlimit:4;stroke-dasharray:none;stroke-opacity:1"
       id="rect4506-6-7-9"
       width="34.395828"
       height="34.395828"
       x="166.68752"
       y="90.625" />
    <text
       xml:space="preserve"
       style="font-style:normal;font-weight:normal;font-size:10.58333302px;line-height:6.61458349px;font-family:sans-serif;letter-spacing:0px;word-spacing:0px;fill:#000000;fill-opacity:1;stroke:none;stroke-width:0.26458332"
       x="183.62967"
       y="97.844383"
       id="text4510-7-5-1"><tspan
         sodipodi:role="line"
         id="tspan4508-5-3-2"
         x="183.62967"
         y="97.844383"
         style="font-size:5.64444447px;text-align:center;text-anchor:middle;stroke-width:0.26458332">OpenShift</tspan><tspan
         sodipodi:role="line"
         x="183.62967"
         y="105.74192"
         style="font-size:5.64444447px;text-align:center;text-anchor:middle;stroke-width:0.26458332"
         id="tspan4512-3-5-7">Master</tspan></text>
    <text
       xml:space="preserve"
       style="font-style:normal;font-weight:normal;font-size:10.58333302px;line-height:6.61458349px;font-family:sans-serif;letter-spacing:0px;word-spacing:0px;fill:#000000;fill-opacity:1;stroke:none;stroke-width:0.26458332"
       x="176.51486"
       y="115.11792"
       id="text5008-9-6-0"><tspan
         sodipodi:role="line"
         id="tspan5006-3-2-9"
         x="176.51486"
         y="115.11792"
         style="font-size:4.58611107px;stroke-width:0.26458332">DC 3</tspan><tspan
         sodipodi:role="line"
         x="176.51486"
         y="123.29037"
         style="font-size:4.58611107px;stroke-width:0.26458332"
         id="tspan192">etcd</tspan></text>
  </g>
</svg>
